…
``` r
main_species <- vancouver_trees %>% 
  count(neighbourhood_name, species_name, sort = T) 

# Here, I display the two most common species in each neighbourhood
main_species %>% 
  slice_max(n, n = 2, 
            by = neighbourhood_name)
```

    ## # A tibble: 44 × 3
    ##    neighbourhood_name  species_name     n
    ##    <chr>               <chr>        <int>
    ##  1 Victoria-fraserview Cerasifera    1241
    ##  2 Victoria-fraserview Serrulata      840
    ##  3 Kitsilano           Platanoides   1188
    ##  4 Kitsilano           Serrulata      559
    ##  5 Dunbar-southlands   Platanoides   1165
    ##  6 Dunbar-southlands   Cerasifera    1061
    ##  7 Shaughnessy         Platanoides   1139
    ##  8 Shaughnessy         Americana      780
    ##  9 Kerrisdale          Platanoides   1067
    ## 10 Kerrisdale          Serrulata      716
    ## # ℹ 34 more rows
…
dmtr_statistics
```

    ## # A tibble: 22 × 10
    ##    neighbourhood_name       dmtr_rng_txt dmtr_mean dmtr_median dmtr_low_int_99
    ##    <chr>                    <chr>            <dbl>       <dbl>           <dbl>
    ##  1 Arbutus-ridge            0, 62            11.9         10              2   
    ##  2 Downtown                 1, 151            7.45         6              3   
    ##  3 Dunbar-southlands        0, 305           13.9         12              2   
    ##  4 Fairview                 1.25, 99         10.6          9              2.50
    ##  5 Grandview-woodland       0, 63            11.4          8.5            2   
    ##  6 Hastings-sunrise         0, 435           11.0          8.5            3   
    ##  7 Kensington-cedar cottage 0, 99            11.7          9.5            2   
    ##  8 Kerrisdale               0, 156           12.7         10              2   
    ##  9 Killarney                0, 50            10.1          8              2   
    ## 10 Kitsilano                0, 317           14.4         12              2   
    ## # ℹ 12 more rows
    ## # ℹ 5 more variables: dmtr_low_int_95 <dbl>, dmtr_low_int_50 <dbl>,
    ## #   dmtr_upp_int_50 <dbl>, dmtr_upp_int_95 <dbl>, dmtr_upp_int_99 <dbl>
…
The code below generates the count of trees with and without root
barriers in each neighbourhood. The resulting table allows a clear
comparison of the distribution of trees with this characteristic across
different neighbourhoods, which answers the research question.

``` r
root_b_count <- vancouver_trees %>% 
  count(root_barrier,
        .by = neighbourhood_name)

root_b_count
```

    ## # A tibble: 44 × 3
    ##    root_barrier .by                          n
    ##    <chr>        <chr>                    <int>
    ##  1 N            Arbutus-ridge             4968
    ##  2 N            Downtown                  4833
    ##  3 N            Dunbar-southlands         9208
    ##  4 N            Fairview                  3754
    ##  5 N            Grandview-woodland        6169
    ##  6 N            Hastings-sunrise          9492
    ##  7 N            Kensington-cedar cottage 10445
    ##  8 N            Kerrisdale                6684
    ##  9 N            Killarney                 5653
    ## 10 N            Kitsilano                 7673
    ## # ℹ 34 more rows
…
``` r
vancouver_trees <- vancouver_trees %>% 
  mutate(year = year(date_planted), # Creating numerical variable
         decade = if_else(!is.na(year), # Creating decades category
                          paste0(round(year, -1), "'s"),
                          NA))

# Count of trees planted for decade in each neighbourhood
vancouver_trees %>% 
  count(neighbourhood_name, 
        decade)
```

    ## # A tibble: 110 × 3
    ##    neighbourhood_name decade     n
    ##    <chr>              <chr>  <int>
    ##  1 Arbutus-ridge      1990's   290
    ##  2 Arbutus-ridge      2000's  1397
    ##  3 Arbutus-ridge      2010's   742
    ##  4 Arbutus-ridge      2020's   225
    ##  5 Arbutus-ridge      <NA>    2515
    ##  6 Downtown           1990's   151
    ##  7 Downtown           2000's   920
    ##  8 Downtown           2010's  1014
    ##  9 Downtown           2020's   165
    ## 10 Downtown           <NA>    2909
    ## # ℹ 100 more rows
…
<!-------------------------- Start your work below ---------------------------->

``` r
vancouver_trees
```

    ## # A tibble: 146,611 × 22
    ##    tree_id civic_number std_street    genus_name species_name cultivar_name  
    ##      <dbl>        <dbl> <chr>         <chr>      <chr>        <chr>          
    ##  1  149556          494 W 58TH AV     ULMUS      Americana    BRANDON        
    ##  2  149563          450 W 58TH AV     ZELKOVA    Serrata      <NA>           
    ##  3  149579         4994 WINDSOR ST    STYRAX     Japonica     <NA>           
    ##  4  149590          858 E 39TH AV     FRAXINUS   Americana    AUTUMN APPLAUSE
    ##  5  149604         5032 WINDSOR ST    ACER       Campestre    <NA>           
    ##  6  149616          585 W 61ST AV     PYRUS      Calleryana   CHANTICLEER    
    ##  7  149617         4909 SHERBROOKE ST ACER       Platanoides  COLUMNARE      
    ##  8  149618         4925 SHERBROOKE ST ACER       Platanoides  COLUMNARE      
    ##  9  149619         4969 SHERBROOKE ST ACER       Platanoides  COLUMNARE      
    ## 10  149625          720 E 39TH AV     FRAXINUS   Americana    AUTUMN APPLAUSE
    ## # ℹ 146,601 more rows
    ## # ℹ 16 more variables: common_name <chr>, assigned <chr>, root_barrier <chr>,
    ## #   plant_area <chr>, on_street_block <dbl>, on_street <chr>,
    ## #   neighbourhood_name <chr>, street_side_name <chr>, height_range_id <dbl>,
    ## #   diameter <dbl>, curb <chr>, date_planted <date>, longitude <dbl>,
    ## #   latitude <dbl>, year <dbl>, decade <chr>
…
